{
	"dbURI": "mongodb://mira95:mira95@ds155665.mlab.com:55665/zappy",
	"host": "http://localhost:4000",
	"slack": {
		"token": "xoxp-568896739875-568270418240-568445082753-93291ac0a147cf1197fceaf2296bc010",
		"conversationId": "CGQUQ7KDJ"
	},
	"basicMessage": "go",
	"twitter": {
		"consumerKey": "LyZ0fu7v7l2tE2OLiZOS4VGaz",
		"consumerSecretKey": "WyiS2HZaIcJQLcsYiiv2vIaMOpomjD8fQ5yF8RVBuKvJducbjX",
		"accessToken": "107007348-V377OHOkxtFIDRJX68MwrngWdDuWMSGBmoxJdcnw",
		"accessTokenSecret": "wW4inWMBrnvXjGat4SuUnhbjPwg7afdbDLIHDzkkGZUKz"
	}
}